        ungroup()
        
frequency
```

```
## # A tibble: 63,651 × 5
##                    book     word     n book_words  all_words
##                  <fctr>    <chr> <int>      <dbl>      <dbl>
## 1    Chamber of Secrets    harry  1503 0.04470420 0.04044824
## 2   Prisoner of Azkaban    harry  1824 0.04428474 0.04044824
## 3   Philosopher's Stone    harry  1213 0.04243484 0.04044824
## 4     Half-Blood Prince    harry  2581 0.04090462 0.04044824
## 5        Goblet of Fire    harry  2936 0.04040571 0.04044824
## 6  Order of the Phoenix    harry  3730 0.03854222 0.04044824
## 7       Deathly Hallows    harry  2770 0.03773533 0.04044824
## 8    Chamber of Secrets      ron   650 0.01933315 0.01404707
## 9   Prisoner of Azkaban      ron   690 0.01675245 0.01404707
## 10      Deathly Hallows hermione  1077 0.01467183 0.01199986
## # ... with 63,641 more rows
```
…
